<svg id="button_edit_copy" data-name="button_edit copy" xmlns="http://www.w3.org/2000/svg" width="72" height="72" viewBox="0 0 72 72">
  <defs>
    <style>
      .cls-1 {
        fill: #62c083;
      }

      .cls-2 {
        fill: #fff;
        fill-rule: evenodd;
      }
    </style>
  </defs>
  <rect id="base" class="cls-1" width="72" height="72"/>
  <path id="edit" class="cls-2" d="M12129.3,2771.44l-12.1,12.14-1.8,5.98,6-1.72,12.2-12.14Zm2.7,4.26-1,.93-2.6-2.66,0.9-.94Zm-11.8,9.91,9.1-9.12,0.9,0.94-9.1,9.11Zm-1.7-1.73,9.1-9.12,0.9,0.94-9.1,9.11Zm-0.6,1.07,2.1,2.11-2.9.85Z" transform="translate(-12088 -2744)"/>
</svg>
