<?xml version="1.0" encoding="utf-8"?>
<!-- Generator: Adobe Illustrator 19.2.1, SVG Export Plug-In . SVG Version: 6.00 Build 0)  -->
<svg version="1.1" id="Layer_1" xmlns="http://www.w3.org/2000/svg" xmlns:xlink="http://www.w3.org/1999/xlink" x="0px" y="0px"
	 viewBox="0 0 48 48" style="enable-background:new 0 0 48 48;" xml:space="preserve">
<path id="icon" d="M14.6,17c4.1,0,7.5-3.3,7.5-7.5S18.8,2,14.6,2c-4.1,0-7.5,3.3-7.5,7.5c0,0,0,0,0,0C7.1,13.6,10.5,17,14.6,17z
	 M14.6,5c2.5,0,4.5,2,4.5,4.5s-2,4.5-4.5,4.5s-4.5-2-4.5-4.5c0,0,0,0,0,0C10.1,7,12.1,5,14.6,5z M37.6,12.9L24.9,25.6
	c-3.8-5.7-11.4-7.3-17.1-3.5c-3.5,2.3-5.6,6.2-5.6,10.3v1.5h14.4L16,34.5L12.6,46l11.5-3.4L45.8,21L37.6,12.9z M41.5,21l-2.8,2.8
	l-3.9-3.9l2.8-2.8L41.5,21z M5.4,30.9c0.8-5.1,5.6-8.6,10.7-7.8c2.8,0.5,5.3,2.2,6.7,4.6l-3.1,3.1H5.4L5.4,30.9z M22.5,40L17,41.6
	l1.6-5.5l14-14.1l3.9,3.9L22.5,40z"/>
</svg>
