<?xml version="1.0" encoding="utf-8"?>
<!-- Generator: Adobe Illustrator 19.2.1, SVG Export Plug-In . SVG Version: 6.00 Build 0)  -->
<svg version="1.1" id="Layer_1" xmlns="http://www.w3.org/2000/svg" xmlns:xlink="http://www.w3.org/1999/xlink" x="0px" y="0px"
	 viewBox="0 0 48 48" style="enable-background:new 0 0 48 48;" xml:space="preserve">
<style type="text/css">
	.st0{fill:#FFFFFF;}
</style>
<path id="icon_stores" class="st0" d="M24.9,22.4V9h-9.4v8.1h7.6v5.3L9,37.7V39h30v-1.4L24.9,22.4z M28.5,29l-1.5,1.1L24,28
	l-2.9,2.1L19.5,29l4.5-4.8L28.5,29z M17.3,15.3v-4.4h5.8v4.4H17.3z M11.9,37.2l6.3-6.8l2.8,2l2.9-2.1l2.9,2.1l2.8-2l6.3,6.8H11.9
	L11.9,37.2z"/>
</svg>
